…
When we are happy with the preview provided, we collect all the results from our query using `collect()` and we'll notice the table knows how many rows it has since it will have all the data.

```r
iris_tbl %>% 
  filter(Species != "setosa",
         Sepal.Length > 5) %>% 
  arrange(desc(Petal.Length)) %>% 
  collect()
```

```
# A tibble: 96 × 5
   Sepal.Length Sepal.Width Petal.Length Petal.Width Species  
          <dbl>       <dbl>        <dbl>       <dbl> <chr>    
 1          7.7         2.6          6.9         2.3 virginica
 2          7.7         3.8          6.7         2.2 virginica
 3          7.7         2.8          6.7         2   virginica
 4          7.6         3            6.6         2.1 virginica
 5          7.9         3.8          6.4         2   virginica
 6          7.3         2.9          6.3         1.8 virginica
 7          7.2         3.6          6.1         2.5 virginica
 8          7.4         2.8          6.1         1.9 virginica
 9          7.7         3            6.1         2.3 virginica
10          6.3         3.3          6           2.5 virginica
# … with 86 more rows
# ℹ Use `print(n = ...)` to see more rows
```
…
