R Guidance for PHI
…
5 Data Manipulation

Most of the examples in this section use the Borders.csv file unless otherwise specified. Re-import Borders.csv.

A very common way of manipulating data in R is by using the dplyr package. This package exists as part of a group of R packages known as the tidyverse. This section will introduce some of the key functions that can be used in the dplyr package.

5.1 select()

Sometimes you will only be interested in a few columns in your dataframe. The select() function allows you to specify certain columns from within your dataframe to select out. The basic code is: select(df, column name).

Example: If we want to select HospitalCode column from Borders:

select(Borders, HospitalCode)

## # A tibble: 25,299 x 1
##    HospitalCode
##    <chr>       
##  1 B102H       
##  2 B114H       
##  3 B114H       
##  4 B120H       
##  5 B120H       
##  6 B120H       
##  7 B120H       
##  8 B120H       
##  9 B120H       
## 10 B120H       
## # ... with 25,289 more rows

It is also possible to select more than one column. To do this, simply list the columns you would like to select.

Example:

# Select the URI, HospitalCode and Sex columns.
select(Borders, URI, HospitalCode, Sex)

## # A tibble: 25,299 x 3
##      URI HospitalCode   Sex
##    <dbl> <chr>        <dbl>
##  1     1 B102H            2
##  2     2 B114H            1
##  3     3 B114H            2
##  4     4 B120H            1
##  5     5 B120H            2
##  6     6 B120H            1
##  7     7 B120H            2
##  8     8 B120H            2
##  9     9 B120H            2
## 10    10 B120H            2
## # ... with 25,289 more rows

5.1.1 Deleting Columns

select() can also be used to delete a specific column, you can simply run the following code:

select(df, -column_name)

Example: Remove the postcode column from the Borders dataframe

select(Borders, -Postcode)

## # A tibble: 25,299 x 13
##      URI HospitalCode Specialty   MOP Main_Condition Main_op Dateofbirth
##    <dbl> <chr>        <chr>     <dbl> <chr>          <chr>         <dbl>
##  1     1 B102H        E12           1 S4230          <NA>       19310212
##  2     2 B114H        E12           1 C785           <NA>       19280416
##  3     3 B114H        E12           1 G20X           <NA>       19310219
##  4     4 B120H        C8            1 T814           W283       19230820
##  5     5 B120H        AB            1 R02X           <NA>       19290213
##  6     6 B120H        C7            3 H269           C751       19300927
##  7     7 B120H        A1            1 I269           X558       19360306
##  8     8 B120H        C8            1 M169           W371       19410127
##  9     9 B120H        A1            1 K922           X339       19440509
## 10    10 B120H        A1            1 J969           <NA>       19500112
## # ... with 25,289 more rows, and 6 more variables: DateofAdmission <dbl>,
## #   DateofDischarge <dbl>, Sex <dbl>, LinkNo <dbl>, LengthOfStay <dbl>,
## #   HBRes <chr>

5.2 rename() and recode()

The dplyr package also makes it very straight forward to rename or recode specific columns by using the rename() and recode() functions respectively. The rename() function works as follows:

rename(df, new_name = existing_name)

Example: Rename the Dateofbirth column to DateOfBirth.

rename(Borders, DateOfBirth = Dateofbirth)

## # A tibble: 25,299 x 14
##      URI HospitalCode Specialty   MOP Main_Condition Main_op DateOfBirth
##    <dbl> <chr>        <chr>     <dbl> <chr>          <chr>         <dbl>
##  1     1 B102H        E12           1 S4230          <NA>       19310212
##  2     2 B114H        E12           1 C785           <NA>       19280416
##  3     3 B114H        E12           1 G20X           <NA>       19310219
##  4     4 B120H        C8            1 T814           W283       19230820
##  5     5 B120H        AB            1 R02X           <NA>       19290213
##  6     6 B120H        C7            3 H269           C751       19300927
##  7     7 B120H        A1            1 I269           X558       19360306
##  8     8 B120H        C8            1 M169           W371       19410127
##  9     9 B120H        A1            1 K922           X339       19440509
## 10    10 B120H        A1            1 J969           <NA>       19500112
## # ... with 25,289 more rows, and 7 more variables: DateofAdmission <dbl>,
## #   DateofDischarge <dbl>, Sex <dbl>, Postcode <chr>, LinkNo <dbl>,
## #   LengthOfStay <dbl>, HBRes <chr>
…
5.3 filter()

In addition to selecting specific columns, you may also be interested in selecting a subset of rows from your data frame. The dplyr package contains a function called filter() which is designed for performing data partitioning in this manner. This is a very useful function, particularly when working with large datasets. The basic code is: filter(df, conditional statement)

For example, to select only cases from hospital B120H in the Borders dataframe, we would use the following code:

filter(Borders, HospitalCode == "B120H")

Note that there is a difference between using = and ==. The = sign is used for assignment in a similar way to the <- sign mentioned in working with .csv files, whereas the == sign means exactly equal to. In the code listed above, we are looking to select all cases where the HospitalCode is exactly B120H, thus we use == to obtain this information.

Example: Select cases which have a value of 4 for MOP. Note the use of as_tibble() to display only a small part of the data.

filter(Borders, MOP == 4)

## # A tibble: 1,921 x 14
##      URI HospitalCode Specialty   MOP Main_Condition Main_op Dateofbirth
##    <dbl> <chr>        <chr>     <dbl> <chr>          <chr>         <dbl>
##  1    21 B120H        F2            4 O049           Q146       19860122
##  2    27 S226H        A2            4 I251           K631       19610102
##  3    94 B120H        F2            4 O049           Q146       19770606
##  4   105 B120H        C5            4 H653           D151       20040627
##  5   110 B120H        C5            4 J350           E201       20080929
##  6   116 B120H        C5            4 J350           D151       20110629
##  7   138 S226H        A2            4 I080           K631       19621007
##  8   174 B120H        A1            4 D649           <NA>       19430718
##  9   189 B120H        A1            4 I48X           X501       19531018
## 10   208 B120H        F2            4 O049           Q111       19850526
## # ... with 1,911 more rows, and 7 more variables: DateofAdmission <dbl>,
## #   DateofDischarge <dbl>, Sex <dbl>, Postcode <chr>, LinkNo <dbl>,
## #   LengthOfStay <dbl>, HBRes <chr>
…
& (and)
both relations must be true

| (or)
either relation can be true

! (not)
logical negation operator - reverses outcome of an expression

Example: Select all Borders hospital (B120H) cases with the specialty C8. Try setting this example as a new dataframe to make viewing all columns easier.

Borders_filtered <- filter(Borders, HospitalCode == "B120H" & Specialty == "C8")
Borders_filtered

## # A tibble: 1,627 x 14
##      URI HospitalCode Specialty   MOP Main_Condition Main_op Dateofbirth
##    <dbl> <chr>        <chr>     <dbl> <chr>          <chr>         <dbl>
##  1     4 B120H        C8            1 T814           W283       19230820
##  2     8 B120H        C8            1 M169           W371       19410127
##  3    13 B120H        C8            1 T840           W663       19560902
##  4    16 B120H        C8            1 S809           <NA>       19630415
##  5    39 B120H        C8            1 S5210          W196       20040602
##  6    55 B120H        C8            1 M179           W919       19280527
##  7    58 B120H        C8            1 S7200          W471       19301224
##  8    97 B120H        C8            1 S998           X481       19830116
##  9   101 B120H        C8            2 M7966          W879       19981119
## 10   103 B120H        C8            1 S8230          W262       20020115
## # ... with 1,617 more rows, and 7 more variables: DateofAdmission <dbl>,
## #   DateofDischarge <dbl>, Sex <dbl>, Postcode <chr>, LinkNo <dbl>,
## #   LengthOfStay <dbl>, HBRes <chr>
…
5.4 mutate()

Often there is a need to create a new column in a dataframe or modify an existing column. The simplest way to do this is to use the mutate() function. The basic code is: mutate(df, new_column = expression)

For numeric variables the expression may include combinations of numbers, variables, numeric operators, parentheses (brackets) and functions.

For example, to create a new column by dividing an existing column the code would be: mutate(df, new_column = existing_column/2)

If we want to create a new column LOS2 by dividing LengthOfStay and store it in Borders, we can use:

Borders <- mutate(Borders, LOS2 = LengthOfStay/2)
Borders

## # A tibble: 25,299 x 15
##      URI HospitalCode Specialty   MOP Main_Condition Main_op Dateofbirth
##    <dbl> <chr>        <chr>     <dbl> <chr>          <chr>         <dbl>
##  1     1 B102H        E12           1 S4230          <NA>       19310212
##  2     2 B114H        E12           1 C785           <NA>       19280416
##  3     3 B114H        E12           1 G20X           <NA>       19310219
##  4     4 B120H        C8            1 T814           W283       19230820
##  5     5 B120H        AB            1 R02X           <NA>       19290213
##  6     6 B120H        C7            3 H269           C751       19300927
##  7     7 B120H        A1            1 I269           X558       19360306
##  8     8 B120H        C8            1 M169           W371       19410127
##  9     9 B120H        A1            1 K922           X339       19440509
## 10    10 B120H        A1            1 J969           <NA>       19500112
## # ... with 25,289 more rows, and 8 more variables: DateofAdmission <dbl>,
## #   DateofDischarge <dbl>, Sex <dbl>, Postcode <chr>, LinkNo <dbl>,
## #   LengthOfStay <dbl>, HBRes <chr>, LOS2 <dbl>
…
%/%
integer division - returns integer value for the division calculation

^
exponential

5.5 arrange()

Data can also be sorted with dplyr using the arrange() function. Multiple columns can be selected and arrange() will sort the dataframe in the order the columns are selected. Columns can also be sorted in ascending or descending order. For example, using the following code will first sort your dataframe by column1, then by column2 in ascending order and finally column3 in descending order: arrange(df, column1, column2, desc(column3))

Example: Sort the HospitalCode column in ascending order.

arrange(Borders, HospitalCode)

## # A tibble: 25,299 x 15
##      URI HospitalCode Specialty   MOP Main_Condition Main_op Dateofbirth
##    <dbl> <chr>        <chr>     <dbl> <chr>          <chr>         <dbl>
##  1  1763 A210H        C2            1 T432           <NA>       19870209
##  2     1 B102H        E12           1 S4230          <NA>       19310212
##  3   317 B102H        E12           1 J449           <NA>       19380317
##  4   559 B102H        E12           1 I951           <NA>       19330812
##  5   560 B102H        E12           1 J441           <NA>       19390815
##  6   586 B102H        E12           1 S7200          <NA>       19260613
##  7  1473 B102H        E12           1 K566           <NA>       19300710
##  8  1849 B102H        E12           1 J22X           <NA>       19181028
##  9  1927 B102H        E12           1 R53X           <NA>       19271228
## 10  2054 B102H        E12           1 J22X           <NA>       19250920
## # ... with 25,289 more rows, and 8 more variables: DateofAdmission <dbl>,
## #   DateofDischarge <dbl>, Sex <dbl>, Postcode <chr>, LinkNo <dbl>,
## #   LengthOfStay <dbl>, HBRes <chr>, LOS2 <dbl>
…
Magritte

While all of the dplyr functions shown in the previous sections are useful on their own, there are times when we need to use more than one of them to achieve our desired output. For this, dplyr contains the pipe operator, %>%. This operator works by linking the dplyr functions together. The operator takes a value or dataframe and feeds this into a series of functions. Think of the pipe operator as meaning “and then”. By linking the functions together in this way, the code becomes much easier to read as each line consists of its own command. As a result, understanding the code is much more intuitive. The %>% makes the focus of the code on verbs (functions), not nouns (objects).

The pipe operator works in the following manner. This code takes the Borders dataframe, then filters by hospital “B102H” and then sorts the data by date of birth.

Borders %>%
  filter(HospitalCode == "B102H") %>%
  arrange(Dateofbirth)

## # A tibble: 156 x 15
##      URI HospitalCode Specialty   MOP Main_Condition Main_op Dateofbirth
##    <dbl> <chr>        <chr>     <dbl> <chr>          <chr>         <dbl>
##  1  1849 B102H        E12           1 J22X           <NA>       19181028
##  2 10907 B102H        E12           1 I209           <NA>       19181030
##  3 13870 B102H        E12           1 Z755           <NA>       19220326
##  4 18599 B102H        E12           1 R410           <NA>       19220529
##  5  7926 B102H        E12           1 R634           <NA>       19221106
##  6 14888 B102H        E12           1 R400           <NA>       19221107
##  7 21338 B102H        E12           1 S710           <NA>       19221230
##  8 14021 B102H        E12           1 N390           <NA>       19230117
##  9 23840 B102H        E12           1 R55X           <NA>       19230221
## 10 15791 B102H        E12           1 I209           <NA>       19230409
## # ... with 146 more rows, and 8 more variables: DateofAdmission <dbl>,
## #   DateofDischarge <dbl>, Sex <dbl>, Postcode <chr>, LinkNo <dbl>,
## #   LengthOfStay <dbl>, HBRes <chr>, LOS2 <dbl>

As you can see, the Borders dataframe no longer needs to be included in the functions as the first argument. This is because the %>% passes on the result from each line of the function, so there is no need to refer to the dataframe after the first line. This helps make the code easier to follow. The %>% operator helps to make the code flow better, as it is clear to see this code takes the Borders dataframe, filters it to select rows where the hospital code is “B102H”" and then arranges the dataset by date of birth.

Note that a useful shortcut for typing the pipe operator is Ctrl + Shift + M.

5.7 group_by(), summarise() and count()

The group_by() function allows you to easily aggregate your data into groups. This function works in a very similar way to the other dplyr functions, simply list the desired columns you wish to group by within your dataframe. The basic code is: group_by(df, column name)

Example: Use the group_by() function on the HospitalCode column.

group_by(Borders, HospitalCode)

## # A tibble: 25,299 x 15
## # Groups:   HospitalCode [48]
##      URI HospitalCode Specialty   MOP Main_Condition Main_op Dateofbirth
##    <dbl> <chr>        <chr>     <dbl> <chr>          <chr>         <dbl>
##  1     1 B102H        E12           1 S4230          <NA>       19310212
##  2     2 B114H        E12           1 C785           <NA>       19280416
##  3     3 B114H        E12           1 G20X           <NA>       19310219
##  4     4 B120H        C8            1 T814           W283       19230820
##  5     5 B120H        AB            1 R02X           <NA>       19290213
##  6     6 B120H        C7            3 H269           C751       19300927
##  7     7 B120H        A1            1 I269           X558       19360306
##  8     8 B120H        C8            1 M169           W371       19410127
##  9     9 B120H        A1            1 K922           X339       19440509
## 10    10 B120H        A1            1 J969           <NA>       19500112
## # ... with 25,289 more rows, and 8 more variables: DateofAdmission <dbl>,
## #   DateofDischarge <dbl>, Sex <dbl>, Postcode <chr>, LinkNo <dbl>,
## #   LengthOfStay <dbl>, HBRes <chr>, LOS2 <dbl>
…
Example: Calculate the mean LengthOfStay for each HospitalCode.

 Borders %>%
  group_by(HospitalCode) %>%
  summarise(mean_LOS = mean(LengthOfStay)) %>%
  ungroup()

## # A tibble: 48 x 2
##    HospitalCode mean_LOS
##    <chr>           <dbl>
##  1 A210H            2   
##  2 B102H            3.85
##  3 B103H            3.84
##  4 B105H            3.39
##  5 B109H            4.27
##  6 B111V            3.7 
##  7 B114H            5   
##  8 B115V            2.35
##  9 B118H            3.71
## 10 B120H            4.35
## # ... with 38 more rows
…
5.10 tidylog

A very useful package that can be used with dplyr functions is tidylog. This package provides feedback when performing standard dplyr operations such as the ones in the previous sections. For example, load the tidylog package and run the code below:

library(tidylog)

Borders %>%
  filter(HospitalCode == "B102H") %>%
  arrange(Dateofbirth)

## filter: removed 25143 out of 25299 rows (99%)

## # A tibble: 156 x 15
##      URI HospitalCode Specialty   MOP Main_Condition Main_op Dateofbirth
##    <dbl> <chr>        <chr>     <dbl> <chr>          <chr>         <dbl>
##  1  1849 B102H        E12           1 J22X           <NA>       19181028
##  2 10907 B102H        E12           1 I209           <NA>       19181030
##  3 13870 B102H        E12           1 Z755           <NA>       19220326
##  4 18599 B102H        E12           1 R410           <NA>       19220529
##  5  7926 B102H        E12           1 R634           <NA>       19221106
##  6 14888 B102H        E12           1 R400           <NA>       19221107
##  7 21338 B102H        E12           1 S710           <NA>       19221230
##  8 14021 B102H        E12           1 N390           <NA>       19230117
##  9 23840 B102H        E12           1 R55X           <NA>       19230221
## 10 15791 B102H        E12           1 I209           <NA>       19230409
## # ... with 146 more rows, and 8 more variables: DateofAdmission <dbl>,
## #   DateofDischarge <dbl>, Sex <dbl>, Postcode <chr>, LinkNo <dbl>,
## #   LengthOfStay <dbl>, HBRes <chr>, LOS2 <dbl>
…
str_detect(docs$name, "S")

## [1] FALSE FALSE FALSE FALSE  TRUE  TRUE FALSE

5.12.2 Filter Cases Based on Strings - filter() / str_detect()

For string columns, we can select cases based on certain key words in that string. The stringr package contains several functions that allow you to manipulate string columns within your dataframe. These functions can be used alongside filter() to obtain subsets of your dataframe. Further examples about using stringr with filter can be found here

Example: To select the cases with specialty containing “E”, we run the following code:

bor_specialty <- Borders %>% 
  filter(str_detect(Specialty, "E"))
bor_specialty

## # A tibble: 1,656 x 15
##      URI HospitalCode Specialty   MOP Main_Condition Main_op Dateofbirth
##    <dbl> <chr>        <chr>     <dbl> <chr>          <chr>         <dbl>
##  1     1 B102H        E12           1 S4230          <NA>       19310212
##  2     2 B114H        E12           1 C785           <NA>       19280416
##  3     3 B114H        E12           1 G20X           <NA>       19310219
##  4    47 B103H        E12           1 J180           <NA>       19331207
##  5    48 B105H        E12           1 S7200          <NA>       19330722
##  6    49 B105H        E12           1 L031           <NA>       20140917
##  7    50 B114H        E12           1 C859           <NA>       19350320
##  8    51 B118H        E12           1 K566           <NA>       19251214
##  9    71 B120H        E12           1 S2230          <NA>       19440529
## 10   139 B103H        E12           1 F03X           <NA>       19350201
## # ... with 1,646 more rows, and 8 more variables: DateofAdmission <dbl>,
## #   DateofDischarge <dbl>, Sex <dbl>, Postcode <chr>, LinkNo <dbl>,
## #   LengthOfStay <dbl>, HBRes <chr>, LOS2 <dbl>
…
